<?xml version="1.0" encoding="utf-8"?>
<!-- Generator: Adobe Illustrator 23.0.0, SVG Export Plug-In . SVG Version: 6.00 Build 0)  -->
<svg version="1.1" id="Layer_1" xmlns="http://www.w3.org/2000/svg" xmlns:xlink="http://www.w3.org/1999/xlink" x="0px" y="0px"
	 viewBox="0 0 836.139 836.645" style="enable-background:0 0 836.139 836.645;" xml:space="preserve">
<style type="text/css">
	.st0{fill:#0D542C;}
</style>
<path class="st0" d="M423.019,71.382c94.507-94.507,247.733-95.507,342.24-1s94.507,248.733,0,343.24L413.12,765.762
	c-94.507,94.51-247.733,94.51-342.24,0c-94.507-94.508-94.507-247.734,0-342.241L423.019,71.382z" fill="#0D542C"/>
</svg>
