<svg width="18" height="12" viewBox="0 0 18 12" fill="none" xmlns="http://www.w3.org/2000/svg">
<path fill-rule="evenodd" clip-rule="evenodd" d="M1.30802 0.166748C1.13801 0.166748 0.97496 0.235035 0.854744 0.356586C0.734529 0.478138 0.666992 0.642997 0.666992 0.814896C0.666992 0.986796 0.734529 1.15165 0.854744 1.27321C0.97496 1.39476 1.13801 1.46304 1.30802 1.46304H16.6926C16.8626 1.46304 17.0257 1.39476 17.1459 1.27321C17.2661 1.15165 17.3337 0.986796 17.3337 0.814896C17.3337 0.642997 17.2661 0.478138 17.1459 0.356586C17.0257 0.235035 16.8626 0.166748 16.6926 0.166748H1.30802ZM0.666992 6.00008C0.666992 5.82818 0.734529 5.66332 0.854744 5.54177C0.97496 5.42022 1.13801 5.35193 1.30802 5.35193H16.6926C16.8626 5.35193 17.0257 5.42022 17.1459 5.54177C17.2661 5.66332 17.3337 5.82818 17.3337 6.00008C17.3337 6.17198 17.2661 6.33684 17.1459 6.45839C17.0257 6.57994 16.8626 6.64823 16.6926 6.64823H1.30802C1.13801 6.64823 0.97496 6.57994 0.854744 6.45839C0.734529 6.33684 0.666992 6.17198 0.666992 6.00008ZM0.666992 11.1853C0.666992 11.0134 0.734529 10.8485 0.854744 10.727C0.97496 10.6054 1.13801 10.5371 1.30802 10.5371H16.6926C16.8626 10.5371 17.0257 10.6054 17.1459 10.727C17.2661 10.8485 17.3337 11.0134 17.3337 11.1853C17.3337 11.3572 17.2661 11.522 17.1459 11.6436C17.0257 11.7651 16.8626 11.8334 16.6926 11.8334H1.30802C1.13801 11.8334 0.97496 11.7651 0.854744 11.6436C0.734529 11.522 0.666992 11.3572 0.666992 11.1853Z" fill="#555555"/>
</svg>
