<svg width="28" height="28" viewBox="0 0 28 28" fill="none" xmlns="http://www.w3.org/2000/svg">
<path d="M24.3702 0.666748C25.156 0.666748 25.9097 0.978916 26.4653 1.53458C27.021 2.09024 27.3332 2.84388 27.3332 3.62971V24.3705C27.3332 25.1563 27.021 25.9099 26.4653 26.4656C25.9097 27.0212 25.156 27.3334 24.3702 27.3334H3.62947C2.84364 27.3334 2.09 27.0212 1.53434 26.4656C0.978672 25.9099 0.666504 25.1563 0.666504 24.3705V3.62971C0.666504 1.98527 1.98502 0.666748 3.62947 0.666748H24.3702ZM11.9109 11.1556C11.8813 11.2297 11.4813 13.763 8.81465 18.1038C8.81465 18.1038 3.62947 20.7853 4.8591 22.8001C5.85169 24.3705 8.29613 22.7408 10.385 18.8445C10.385 18.8445 13.0813 17.8964 16.6517 17.6297C16.6517 17.6297 22.3702 20.2075 23.1406 17.4667C23.9109 14.7408 18.6221 15.3334 17.7035 15.6149C17.7035 15.6149 14.6813 13.6297 13.9998 10.8742C13.9998 10.8742 15.6739 5.03712 13.0813 5.11119C10.4887 5.18527 11.4665 9.73341 11.9109 11.1556ZM13.1109 12.7112C13.1554 12.7112 13.8072 14.489 15.9109 16.3408C15.9109 16.3408 12.4591 17.0223 10.8887 17.7038C10.8887 17.7038 12.3702 15.1112 13.1109 12.7112ZM18.9184 16.726C19.7776 16.5038 22.3554 16.963 22.2665 17.4371C22.148 17.926 18.9184 16.726 18.9184 16.726ZM8.4591 19.4816C7.67391 21.2742 6.34058 22.4149 5.99984 22.4001C5.6591 22.3853 7.03687 20.0297 8.4591 19.4816ZM13.1109 9.20008C13.0961 9.12601 12.5628 5.95564 13.1109 6.0149C13.9109 6.10379 13.1109 9.12601 13.1109 9.20008Z" fill="white"/>
</svg>
