<svg width="24" height="24" viewBox="0 0 24 24" fill="none" xmlns="http://www.w3.org/2000/svg">
<path d="M8.175 20.825L5.19167 17.8333H22V16.1667H5.19167L8.175 13.175L7 12L2 17L7 22L8.175 20.825Z" fill="black"/>
<path d="M22 7L17 2L15.825 3.175L18.8083 6.16667H2V7.83333H18.8083L15.825 10.825L17 12L22 7Z" fill="black"/>
</svg>
