<svg width="18" height="17" viewBox="0 0 18 17" fill="none" xmlns="http://www.w3.org/2000/svg">
<path d="M13.8849 2.46561V0.166748H0.666504V14.2472C0.666504 15.6732 1.8267 16.8334 3.25271 16.8334H14.747C16.173 16.8334 17.3332 15.6732 17.3332 14.2472V2.46561H13.8849ZM11.5861 12.8104H2.96537V11.0863H11.5861L11.5861 12.8104ZM11.5861 9.36216H2.96537V7.638H11.5861L11.5861 9.36216ZM11.5861 5.91388H2.96537V2.46561H11.5861L11.5861 5.91388ZM15.609 14.2472C15.609 14.7226 15.2223 15.1093 14.747 15.1093C14.2716 15.1093 13.8849 14.7226 13.8849 14.2472V4.18973H15.609V14.2472Z" fill="#000000"/>
</svg>
