<svg width="17" height="16" viewBox="0 0 17 16" fill="none" xmlns="http://www.w3.org/2000/svg">
<path d="M14.0357 13.1034H1.96429C1.84115 13.1034 1.72306 13.1507 1.63599 13.2347C1.54892 13.3188 1.5 13.4328 1.5 13.5517C1.5 13.6706 1.54892 13.7846 1.63599 13.8687C1.72306 13.9528 1.84115 14 1.96429 14H14.0357C14.1588 14 14.2769 13.9528 14.364 13.8687C14.4511 13.7846 14.5 13.6706 14.5 13.5517C14.5 13.4328 14.4511 13.3188 14.364 13.2347C14.2769 13.1507 14.1588 13.1034 14.0357 13.1034Z" fill="black"/>
<path d="M8 12.4221L12.9261 7.66586C13.0021 7.58011 13.0419 7.4698 13.0374 7.35698C13.0329 7.24416 12.9844 7.13713 12.9017 7.0573C12.819 6.97746 12.7082 6.93069 12.5913 6.92634C12.4745 6.92198 12.3602 6.96035 12.2714 7.03379L8.46428 10.7052V1.44828C8.46428 1.32939 8.41537 1.21537 8.3283 1.1313C8.24123 1.04723 8.12314 1 8 1C7.87686 1 7.75877 1.04723 7.6717 1.1313C7.58463 1.21537 7.53571 1.32939 7.53571 1.44828V10.7052L3.73321 7.03379C3.69159 6.98687 3.64037 6.94875 3.58277 6.92185C3.52517 6.89494 3.46243 6.87982 3.39849 6.87744C3.33455 6.87505 3.27079 6.88545 3.21121 6.90799C3.15163 6.93053 3.09752 6.96471 3.05227 7.0084C3.00702 7.05208 2.97162 7.10433 2.94828 7.16186C2.92493 7.21938 2.91416 7.28094 2.91663 7.34268C2.9191 7.40442 2.93476 7.46499 2.96263 7.52061C2.9905 7.57622 3.02997 7.62568 3.07857 7.66586L8 12.4221Z" fill="black"/>
</svg>
