<svg width="1366" height="383" viewBox="0 0 1366 383" fill="none" xmlns="http://www.w3.org/2000/svg">
<path d="M1366 66.1975C1145.05 22.7647 916.683 0 683 0C449.317 0 220.952 22.7646 0 66.1975V383H1366V66.1975Z" fill="#01AEF0"/>
</svg>
