<svg width="18" height="17" viewBox="0 0 18 17" fill="none" xmlns="http://www.w3.org/2000/svg">
<path d="M4.83405 6.71274H1.26286C0.93504 6.71274 0.669991 6.97779 0.666504 7.3091V16.237C0.666504 16.5684 0.93504 16.8334 1.26286 16.8334H4.83405C5.16536 16.8334 5.43041 16.5649 5.43041 16.237V7.3091C5.43041 6.97779 5.16187 6.71274 4.83405 6.71274Z" fill="#000000"/>
<path d="M10.7871 0.166748H7.21587C6.88805 0.166748 6.61951 0.431796 6.61951 0.75962V16.2371C6.61951 16.5684 6.88805 16.8334 7.21587 16.8334H10.7871C11.1184 16.8334 11.3834 16.5649 11.3834 16.2371V0.763107C11.3834 0.431796 11.1149 0.166748 10.7871 0.166748Z" fill="#000000"/>
<path d="M16.7404 4.92716H13.1692C12.8379 4.92716 12.5728 5.19221 12.5728 5.52352V16.2371C12.5728 16.5684 12.8414 16.8334 13.1692 16.8334H16.7404C17.0717 16.8334 17.3368 16.5649 17.3368 16.2371V5.52352C17.3368 5.19221 17.0682 4.92716 16.7404 4.92716Z" fill="#000000"/>
</svg>
