<svg width="24" height="24" viewBox="0 0 24 24" fill="none" xmlns="http://www.w3.org/2000/svg">
<path d="M19.8261 2H10.2609C9.06263 2 8.08698 2.97565 8.08698 4.1739V9.3913C8.08698 9.6313 8.28178 9.8261 8.52178 9.8261C8.76178 9.8261 8.95657 9.6313 8.95657 9.3913V4.1739C8.95657 3.45476 9.54178 2.86955 10.2609 2.86955H19.8262C20.5453 2.86955 21.1305 3.45476 21.1305 4.1739V19.8261C21.1305 20.5452 20.5453 21.1304 19.8262 21.1304H10.2609C9.54174 21.1304 8.95653 20.5452 8.95653 19.8261V14.6087C8.95653 14.3687 8.76174 14.1739 8.52174 14.1739C8.28174 14.1739 8.08694 14.3687 8.08694 14.6087V19.8261C8.08694 21.0243 9.06259 22 10.2608 22H19.8261C21.0243 22 22 21.0243 22 19.8261V4.1739C22 2.97565 21.0244 2 19.8261 2Z" fill="black"/>
<path d="M16.3478 11.5653H2.4348C2.1948 11.5653 2 11.76 2 12C2 12.24 2.1948 12.4348 2.4348 12.4348H16.3478C16.5878 12.4348 16.7826 12.24 16.7826 12C16.7826 11.76 16.5878 11.5653 16.3478 11.5653Z" fill="black"/>
<path d="M16.6547 11.694L14.046 9.08525C13.8765 8.91569 13.6008 8.91569 13.4312 9.08525C13.2617 9.25482 13.2617 9.53048 13.4312 9.70005L15.7321 12.0009L13.4312 14.3018C13.2617 14.4714 13.2617 14.747 13.4312 14.9166C13.5165 15.0009 13.6277 15.0436 13.739 15.0436C13.8504 15.0436 13.9616 15.001 14.046 14.9175L16.6547 12.3088C16.8243 12.1392 16.8243 11.8635 16.6547 11.694Z" fill="black"/>
</svg>
