<svg width="24" height="24" viewBox="0 0 24 24" fill="none" xmlns="http://www.w3.org/2000/svg">
<path d="M2 19.2H22V21H2V19.2Z" fill="black"/>
<path d="M2 8.40002H22V10.2H2V8.40002Z" fill="black"/>
<path d="M2 13.8H22V15.6001H2V13.8Z" fill="black"/>
<path d="M2 3H22V4.8H2V3Z" fill="black"/>
</svg>
